{
	"root": {
		"axis": [
			{
				"pos": "1",
				"@values": "1",
				"title": "Secció",
				"label": {
					"codi": "0",
					"texte": "Mèdica i quirúrgica"
				}
			},
			{
				"pos": "2",
				"@values": "1",
				"title": "Sistema orgànic",
				"label": {
					"codi": "0",
					"texte": "Sistema nerviós central i nervis cranials"
				}
			},
			{
				"pos": "3",
				"@values": "1",
				"title": "Tipus de procediment",
				"label": {
					"codi": "B",
					"texte": "Excisió"
				},
				"definition": "eliminar o tallar una porció d'una localització anatòmica sense substituir-la."
			}
		],
		"pcsRow": {
			"codis": "162",
			"axis": [
				{
					"pos": "4",
					"@values": "27",
					"title": "Localització anatòmica",
					"label": [
						{
							"codi": "0",
							"texte": "Encèfal"
						},
						{
							"codi": "1",
							"texte": "Meninges cerebrals"
						},
						{
							"codi": "2",
							"texte": "Duramàter"
						},
						{
							"codi": "6",
							"texte": "Ventricle cerebral"
						},
						{
							"codi": "7",
							"texte": "Hemisferi cerebral"
						},
						{
							"codi": "8",
							"texte": "Ganglis basals"
						},
						{
							"codi": "9",
							"texte": "Tàlem"
						},
						{
							"codi": "A",
							"texte": "Hipotàlem"
						},
						{
							"codi": "B",
							"texte": "Protuberància anular"
						},
						{
							"codi": "C",
							"texte": "Cerebel"
						},
						{
							"codi": "D",
							"texte": "Bulb raquidi"
						},
						{
							"codi": "F",
							"texte": "Nervi olfactori"
						},
						{
							"codi": "G",
							"texte": "Nervi òptic"
						},
						{
							"codi": "H",
							"texte": "Nervi motor ocular comú"
						},
						{
							"codi": "J",
							"texte": "Nervi patètic"
						},
						{
							"codi": "K",
							"texte": "Nervi trigemin"
						},
						{
							"codi": "L",
							"texte": "Nervi abducent"
						},
						{
							"codi": "M",
							"texte": "Nervi facial"
						},
						{
							"codi": "N",
							"texte": "Nervi auditiu"
						},
						{
							"codi": "P",
							"texte": "Nervi glossofaringi"
						},
						{
							"codi": "Q",
							"texte": "Nervi vague"
						},
						{
							"codi": "R",
							"texte": "Nervi espinal"
						},
						{
							"codi": "S",
							"texte": "Nervi hipoglòs"
						},
						{
							"codi": "T",
							"texte": "Meninges espinals"
						},
						{
							"codi": "W",
							"texte": "Medul·la espinal cervical"
						},
						{
							"codi": "X",
							"texte": "Medul·la espinal dorsal"
						},
						{
							"codi": "Y",
							"texte": "Medul·la espinal lumbar"
						}
					]
				},
				{
					"pos": "5",
					"@values": "3",
					"title": "Abordatge",
					"label": [
						{
							"codi": "0",
							"texte": "Obert"
						},
						{
							"codi": "3",
							"texte": "Percutani"
						},
						{
							"codi": "4",
							"texte": "Endoscòpic percutani"
						}
					]
				},
				{
					"pos": "6",
					"@values": "1",
					"title": "Dispositiu",
					"label": {
						"codi": "Z",
						"texte": "Sense dispositiu"
					}
				},
				{
					"pos": "7",
					"@values": "2",
					"title": "Qualificador",
					"label": [
						{
							"codi": "X",
							"texte": "Diagnòstic -a"
						},
						{
							"codi": "Z",
							"texte": "Sense qualificador"
						}
					]
				}
			]
		}
	}
}